Efficient data manipulation with R
…
Important

Note that the base R function to read a CSV file is read.csv(). Do not confuse with the read_csv() function from readr.

Reading files online

It is also possible to read files hosted online by providing an URL. For example, let’s read daily weather updates from the Curiosity Rover on Mars.

mars <- read_csv("https://query.data.world/s/nig6iktbywlhnws22gfz6tvstwtmuu")

mars

# A tibble: 1,894 × 10
      id terrestrial…¹   sol    ls month min_t…² max_t…³ press…⁴ wind_…⁵ atmo_…⁶
   <dbl> <date>        <dbl> <dbl> <chr>   <dbl>   <dbl>   <dbl>   <dbl> <chr>  
 1  1895 2018-02-27     1977   135 Mont…     -77     -10     727     NaN Sunny  
 2  1893 2018-02-26     1976   135 Mont…     -77     -10     728     NaN Sunny  
 3  1894 2018-02-25     1975   134 Mont…     -76     -16     729     NaN Sunny  
 4  1892 2018-02-24     1974   134 Mont…     -77     -13     729     NaN Sunny  
 5  1889 2018-02-23     1973   133 Mont…     -78     -18     730     NaN Sunny  
 6  1891 2018-02-22     1972   133 Mont…     -78     -14     730     NaN Sunny  
 7  1890 2018-02-21     1971   132 Mont…     -78     -13     731     NaN Sunny  
 8  1888 2018-02-20     1970   132 Mont…     -77     -16     731     NaN Sunny  
 9  1887 2018-02-19     1969   131 Mont…     -76     -16     732     NaN Sunny  
10  1886 2018-02-18     1968   131 Mont…     -76     -19     732     NaN Sunny  
# … with 1,884 more rows, and abbreviated variable names ¹​terrestrial_date,
#   ²​min_temp, ³​max_temp, ⁴​pressure, ⁵​wind_speed, ⁶​atmo_opacity
…
Reading using readr creates a tibble

read_csv("data/usarrests.csv")

# A tibble: 50 × 5
   state       Murder Assault UrbanPop  Rape
   <chr>        <dbl>   <dbl>    <dbl> <dbl>
 1 Alabama       13.2     236       58  21.2
 2 Alaska        10       263       48  44.5
 3 Arizona        8.1     294       80  31  
 4 Arkansas       8.8     190       50  19.5
 5 California     9       276       91  40.6
 6 Colorado       7.9     204       78  38.7
 7 Connecticut    3.3     110       77  11.1
 8 Delaware       5.9     238       72  15.8
 9 Florida       15.4     335       80  31.9
10 Georgia       17.4     211       60  25.8
# … with 40 more rows
Importing data

Your turn: try reading the data (CSV file) located at this location:

https://bit.ly/3xrnh3U

Use the <- operator to create a new variable (ex.: df).

library(readr)

df <- read_csv("https://bit.ly/3xrnh3U")

df

# A tibble: 1,309 × 9
   pclass sex      age family_size ticket    fare cabin   embarked survived
    <dbl> <chr>  <dbl>       <dbl> <chr>    <dbl> <chr>   <chr>       <dbl>
 1      1 female 29              0 24160    211.  B5      S               1
 2      1 male    0.92           3 113781   152.  C22 C26 S               1
 3      1 female  2              3 113781   152.  C22 C26 S               0
 4      1 male   30              3 113781   152.  C22 C26 S               0
 5      1 female 25              3 113781   152.  C22 C26 S               0
 6      1 male   48              0 19952     26.6 E12     S               1
 7      1 female 63              1 13502     78.0 D7      S               1
 8      1 male   39              0 112050     0   A36     S               0
 9      1 female 53              2 11769     51.5 C101    S               1
10      1 male   71              0 PC 17609  49.5 <NA>    C               0
# … with 1,299 more rows
…
The filter() function

Example 1: select all flights with a tail number equal to “N14228”.

filter(flights, tailnum == "N14228")

# A tibble: 111 × 19
    year month   day dep_time sched_de…¹ dep_d…² arr_t…³ sched…⁴ arr_d…⁵ carrier
   <int> <int> <int>    <int>      <int>   <dbl>   <int>   <int>   <dbl> <chr>  
 1  2013     1     1      517        515       2     830     819      11 UA     
 2  2013     1     8     1435       1440      -5    1717    1746     -29 UA     
 3  2013     1     9      717        700      17     812     815      -3 UA     
 4  2013     1     9     1143       1144      -1    1425    1445     -20 UA     
 5  2013     1    13      835        824      11    1030     951      39 UA     
 6  2013     1    16     1829       1730      59    2117    2023      54 UA     
 7  2013     1    22     1902       1808      54    2214    2106      68 UA     
 8  2013     1    23     1050       1056      -6    1143    1208     -25 UA     
 9  2013     1    23     1533       1529       4    1641    1645      -4 UA     
10  2013     1    25      724        720       4    1000    1023     -23 UA     
# … with 101 more rows, 9 more variables: flight <int>, tailnum <chr>,
#   origin <chr>, dest <chr>, air_time <dbl>, distance <dbl>, hour <dbl>,
#   minute <dbl>, time_hour <dttm>, and abbreviated variable names
#   ¹​sched_dep_time, ²​dep_delay, ³​arr_time, ⁴​sched_arr_time, ⁵​arr_delay

The filter() function

Example 2: select all flights with a departure delay greater than 180 minutes.

filter(flights, dep_delay > 180)

# A tibble: 3,893 × 19
    year month   day dep_time sched_de…¹ dep_d…² arr_t…³ sched…⁴ arr_d…⁵ carrier
   <int> <int> <int>    <int>      <int>   <dbl>   <int>   <int>   <dbl> <chr>  
 1  2013     1     1      848       1835     853    1001    1950     851 MQ     
 2  2013     1     1     1815       1325     290    2120    1542     338 EV     
 3  2013     1     1     1842       1422     260    1958    1535     263 EV     
 4  2013     1     1     2006       1630     216    2230    1848     222 EV     
 5  2013     1     1     2115       1700     255    2330    1920     250 9E     
 6  2013     1     1     2205       1720     285      46    2040     246 AA     
 7  2013     1     1     2312       2000     192      21    2110     191 EV     
 8  2013     1     1     2343       1724     379     314    1938     456 EV     
 9  2013     1     2     1244        900     224    1431    1104     207 EV     
10  2013     1     2     1332        904     268    1616    1128     288 EV     
# … with 3,883 more rows, 9 more variables: flight <int>, tailnum <chr>,
#   origin <chr>, dest <chr>, air_time <dbl>, distance <dbl>, hour <dbl>,
#   minute <dbl>, time_hour <dttm>, and abbreviated variable names
#   ¹​sched_dep_time, ²​dep_delay, ³​arr_time, ⁴​sched_arr_time, ⁵​arr_delay

The filter() function

Example 3: select all flights from carriers “MQ” or “EV”.

filter(flights, carrier == "MQ" | carrier == "EV")

# A tibble: 80,570 × 19
    year month   day dep_time sched_de…¹ dep_d…² arr_t…³ sched…⁴ arr_d…⁵ carrier
   <int> <int> <int>    <int>      <int>   <dbl>   <int>   <int>   <dbl> <chr>  
 1  2013     1     1      557        600      -3     709     723     -14 EV     
 2  2013     1     1      600        600       0     837     825      12 MQ     
 3  2013     1     1      602        605      -3     821     805      16 MQ     
 4  2013     1     1      608        600       8     807     735      32 MQ     
 5  2013     1     1      624        630      -6     909     840      29 EV     
 6  2013     1     1      624        630      -6     840     830      10 MQ     
 7  2013     1     1      632        608      24     740     728      12 EV     
 8  2013     1     1      656        705      -9    1007     940      27 MQ     
 9  2013     1     1      749        710      39     939     850      49 MQ     
10  2013     1     1      800        810     -10     949     955      -6 MQ     
# … with 80,560 more rows, 9 more variables: flight <int>, tailnum <chr>,
#   origin <chr>, dest <chr>, air_time <dbl>, distance <dbl>, hour <dbl>,
#   minute <dbl>, time_hour <dttm>, and abbreviated variable names
#   ¹​sched_dep_time, ²​dep_delay, ³​arr_time, ⁴​sched_arr_time, ⁵​arr_delay

The filter() function

Another option using the %in% operator.

filter(flights, carrier %in% c("MQ", "EV"))

# A tibble: 80,570 × 19
    year month   day dep_time sched_de…¹ dep_d…² arr_t…³ sched…⁴ arr_d…⁵ carrier
   <int> <int> <int>    <int>      <int>   <dbl>   <int>   <int>   <dbl> <chr>  
 1  2013     1     1      557        600      -3     709     723     -14 EV     
 2  2013     1     1      600        600       0     837     825      12 MQ     
 3  2013     1     1      602        605      -3     821     805      16 MQ     
 4  2013     1     1      608        600       8     807     735      32 MQ     
 5  2013     1     1      624        630      -6     909     840      29 EV     
 6  2013     1     1      624        630      -6     840     830      10 MQ     
 7  2013     1     1      632        608      24     740     728      12 EV     
 8  2013     1     1      656        705      -9    1007     940      27 MQ     
 9  2013     1     1      749        710      39     939     850      49 MQ     
10  2013     1     1      800        810     -10     949     955      -6 MQ     
# … with 80,560 more rows, 9 more variables: flight <int>, tailnum <chr>,
#   origin <chr>, dest <chr>, air_time <dbl>, distance <dbl>, hour <dbl>,
#   minute <dbl>, time_hour <dttm>, and abbreviated variable names
#   ¹​sched_dep_time, ²​dep_delay, ³​arr_time, ⁴​sched_arr_time, ⁵​arr_delay

The filter() function

Your turn: write code that uses the flights table and return all the flights with delayed departures between 100 and 200 minutes from the “FL” carrier.

filter(flights, dep_delay >= 100 & dep_delay <= 200 & carrier == "FL")

# A tibble: 127 × 19
    year month   day dep_time sched_de…¹ dep_d…² arr_t…³ sched…⁴ arr_d…⁵ carrier
   <int> <int> <int>    <int>      <int>   <dbl>   <int>   <int>   <dbl> <chr>  
 1  2013     1    27     1522       1308     134    1809    1542     147 FL     
 2  2013     1    30     2300       2030     150      23    2206     137 FL     
 3  2013    10     7     2132       1859     153    2339    2126     133 FL     
 4  2013    10     7     2240       2030     130    2356    2201     115 FL     
 5  2013    10    11     1946       1738     128    2156    2005     111 FL     
 6  2013    10    11     2144       1859     165    2344    2126     138 FL     
 7  2013    10    28      956        810     106    1217    1037     100 FL     
 8  2013    11    12     1937       1729     128    2221    1955     146 FL     
 9  2013    11    27     1901       1720     101    2144    1948     116 FL     
10  2013    12     5     2314       2033     161      38    2206     152 FL     
# … with 117 more rows, 9 more variables: flight <int>, tailnum <chr>,
#   origin <chr>, dest <chr>, air_time <dbl>, distance <dbl>, hour <dbl>,
#   minute <dbl>, time_hour <dttm>, and abbreviated variable names
#   ¹​sched_dep_time, ²​dep_delay, ³​arr_time, ⁴​sched_arr_time, ⁵​arr_delay

The arrange() function

arrange() reorders the rows of a data frame.

The function takes a data frame, and a set of column name(s) to order by.

The arrange() function

Example 1: reorder flights on departure month.

arrange(flights, month)

# A tibble: 336,776 × 19
    year month   day dep_time sched_de…¹ dep_d…² arr_t…³ sched…⁴ arr_d…⁵ carrier
   <int> <int> <int>    <int>      <int>   <dbl>   <int>   <int>   <dbl> <chr>  
 1  2013     1     1      517        515       2     830     819      11 UA     
 2  2013     1     1      533        529       4     850     830      20 UA     
 3  2013     1     1      542        540       2     923     850      33 AA     
 4  2013     1     1      544        545      -1    1004    1022     -18 B6     
 5  2013     1     1      554        600      -6     812     837     -25 DL     
 6  2013     1     1      554        558      -4     740     728      12 UA     
 7  2013     1     1      555        600      -5     913     854      19 B6     
 8  2013     1     1      557        600      -3     709     723     -14 EV     
 9  2013     1     1      557        600      -3     838     846      -8 B6     
10  2013     1     1      558        600      -2     753     745       8 AA     
# … with 336,766 more rows, 9 more variables: flight <int>, tailnum <chr>,
#   origin <chr>, dest <chr>, air_time <dbl>, distance <dbl>, hour <dbl>,
#   minute <dbl>, time_hour <dttm>, and abbreviated variable names
#   ¹​sched_dep_time, ²​dep_delay, ³​arr_time, ⁴​sched_arr_time, ⁵​arr_delay

The arrange() function

Example 2: reorder flights on departure month and departure time.

arrange(flights, month, dep_time)

# A tibble: 336,776 × 19
    year month   day dep_time sched_de…¹ dep_d…² arr_t…³ sched…⁴ arr_d…⁵ carrier
   <int> <int> <int>    <int>      <int>   <dbl>   <int>   <int>   <dbl> <chr>  
 1  2013     1    13        1       2249      72     108    2357      71 B6     
 2  2013     1    31        1       2100     181     124    2225     179 WN     
 3  2013     1     9        2       2359       3     432     444     -12 B6     
 4  2013     1    13        2       2359       3     502     444      18 B6     
 5  2013     1    16        2       2125     157     119    2250     149 MQ     
 6  2013     1    10        3       2359       4     426     437     -11 B6     
 7  2013     1    13        3       2030     213     340    2350     230 B6     
 8  2013     1    16        3       1946     257     212    2154     258 EV     
 9  2013     1    30        3       2159     124     100    2306     114 EV     
10  2013     1    31        4       2359       5     455     444      11 B6     
# … with 336,766 more rows, 9 more variables: flight <int>, tailnum <chr>,
#   origin <chr>, dest <chr>, air_time <dbl>, distance <dbl>, hour <dbl>,
#   minute <dbl>, time_hour <dttm>, and abbreviated variable names
#   ¹​sched_dep_time, ²​dep_delay, ³​arr_time, ⁴​sched_arr_time, ⁵​arr_delay

The arrange() function

Example 3: reorder flights on departure month and by decreasing departure time.

arrange(flights, month, desc(dep_time))

# A tibble: 336,776 × 19
    year month   day dep_time sched_de…¹ dep_d…² arr_t…³ sched…⁴ arr_d…⁵ carrier
   <int> <int> <int>    <int>      <int>   <dbl>   <int>   <int>   <dbl> <chr>  
 1  2013     1     7     2359       2359       0     506     437      29 B6     
 2  2013     1    12     2359       2359       0     429     437      -8 B6     
 3  2013     1    13     2359       2130     149     435     218     137 B6     
 4  2013     1    18     2359       2359       0     439     437       2 B6     
 5  2013     1    19     2359       2359       0     437     444      -7 B6     
 6  2013     1    25     2359       2359       0     500     444      16 B6     
 7  2013     1     4     2358       2359      -1     429     437      -8 B6     
 8  2013     1     4     2358       2359      -1     436     445      -9 B6     
 9  2013     1    13     2358       2045     193     233    2310     203 B6     
10  2013     1    16     2358       2359      -1     502     437      25 B6     
# … with 336,766 more rows, 9 more variables: flight <int>, tailnum <chr>,
#   origin <chr>, dest <chr>, air_time <dbl>, distance <dbl>, hour <dbl>,
#   minute <dbl>, time_hour <dttm>, and abbreviated variable names
#   ¹​sched_dep_time, ²​dep_delay, ³​arr_time, ⁴​sched_arr_time, ⁵​arr_delay

The select() function

select() is used to extract column(s) from a data frame.

Useful when you want to perform data analysis on specific column(s) and not the complete dataset.

The select() function

Example 1: select “faa” and “name” columns from the airports data frame.

select(airports, faa, name)

# A tibble: 1,458 × 2
   faa   name                          
   <chr> <chr>                         
 1 04G   Lansdowne Airport             
 2 06A   Moton Field Municipal Airport 
 3 06C   Schaumburg Regional           
 4 06N   Randall Airport               
 5 09J   Jekyll Island Airport         
 6 0A9   Elizabethton Municipal Airport
 7 0G6   Williams County Airport       
 8 0G7   Finger Lakes Regional Airport 
 9 0P2   Shoestring Aviation Airfield  
10 0S9   Jefferson County Intl         
# … with 1,448 more rows

The select() function

You can also use select() to remove columns with the - operator.

Example 2: select all columns from airports except “faa” and “name”.

select(airports, -faa, -name)

# A tibble: 1,458 × 6
     lat    lon   alt    tz dst   tzone              
   <dbl>  <dbl> <dbl> <dbl> <chr> <chr>              
 1  41.1  -80.6  1044    -5 A     America/New_York   
 2  32.5  -85.7   264    -6 A     America/Chicago    
 3  42.0  -88.1   801    -6 A     America/Chicago    
 4  41.4  -74.4   523    -5 A     America/New_York   
 5  31.1  -81.4    11    -5 A     America/New_York   
 6  36.4  -82.2  1593    -5 A     America/New_York   
 7  41.5  -84.5   730    -5 A     America/New_York   
 8  42.9  -76.8   492    -5 A     America/New_York   
 9  39.8  -76.6  1000    -5 U     America/New_York   
10  48.1 -123.    108    -8 A     America/Los_Angeles
# … with 1,448 more rows

The select() function

It is also possible to select columns using helper functions.

Example 3: select “year”, “month” and all columns that start with “dep_” from flights.

select(flights, year, month, starts_with("dep_"))

# A tibble: 336,776 × 4
    year month dep_time dep_delay
   <int> <int>    <int>     <dbl>
 1  2013     1      517         2
 2  2013     1      533         4
 3  2013     1      542         2
 4  2013     1      544        -1
 5  2013     1      554        -6
 6  2013     1      554        -4
 7  2013     1      555        -5
 8  2013     1      557        -3
 9  2013     1      557        -3
10  2013     1      558        -2
# … with 336,766 more rows
…
The mutate() function is used to add or modify existing column(s) inside a data frame.

The function takes a data frame, and one or more expressions that add/modify columns.

The mutate() function

Example 1: add a new column named distance_km which converts the distance column, which is the flight distance in miles, into km.

mutate(
  flights,
  distance_km = distance / 0.62137,
  .keep = "used"
)

# A tibble: 336,776 × 2
   distance distance_km
      <dbl>       <dbl>
 1     1400     2253.1 
 2     1416     2278.8 
 3     1089     1752.6 
 4     1576     2536.3 
 5      762     1226.3 
 6      719     1157.1 
 7     1065     1714.0 
 8      229      368.54
 9      944     1519.2 
10      733     1179.7 
# … with 336,766 more rows

The mutate() function

It is also possible to add many new variables in a single operation.

mutate(
  flights,
  distance_km = distance / 0.62137,
  distance_knot = distance / 1.15078,
  .keep = "used"
)

# A tibble: 336,776 × 3
   distance distance_km distance_knot
      <dbl>       <dbl>         <dbl>
 1     1400       2253.         1217.
 2     1416       2279.         1230.
 3     1089       1753.          946.
 4     1576       2536.         1370.
 5      762       1226.          662.
 6      719       1157.          625.
 7     1065       1714.          925.
 8      229        369.          199.
 9      944       1519.          820.
10      733       1180.          637.
# … with 336,766 more rows
…
